﻿locationID,Latitude,Longitude,Name,Address,,
1,10.66912332,122.9580635,Zitro Vet Clinic,"MX95+49G, Orsons Bldg. Cor. Lopez Jaena-, Burgos Ave, Bacolod, Negros Occidental",,
2,10.65259088,122.9607028,Red Marks Animal Clinic,"Villa Celia Subdivision, Blk 2 Lot 2, Bacolod, 6100 Negros Occidental",,
3,10.64903924,122.9652616,Green Paws Veterinary Clinic,"Lot 3, Block 1, Eufemia Compound, Circumferential Rd, Bacolod, 6100 Negros Occidental",,
4,10.64301683,122.9454464,Dr. S&J Veterinary Clinic And Grooming,"Door 2, Garces Bldg, Alijis Rd, Bacolod, 6100 Negros Occidental",,
5,10.68988356,122.9587087,Mandalagan Veterinary Hospital,"Lacson St, Bacolod, Negros Occidental",,
6,10.70573668,122.9616468,Pet House Central Veterinary Clinic,"PX36+XP9, Carlos Hilado Hwy, Bacolod, 6100 Negros Occidental",,
7,10.67102112,122.9542011,St Therese Dog And Cat Clinic,"Tower Building, 61 Burgos Ave, Bacolod, 6100 Negros Occidental",,
8,10.6632073,122.9708797,St Jude Dog & Cat Veterinary Clinic,"MX7C+38P, Burgos Ave, Bacolod, 6100 Negros Occidental",,
9,10.64075891,122.9708413,De Perro Pet Clinic,"Victorina Heights, Door 4 and 5, Block 3, Lot 1, Bacolod, 6100 Negros Occidental",,
10,10.6803862,122.9907937,Pet Medics Veterinary Clinic,"Lungsod ng Bacolod, 6100 Negros Occidental",,
11,10.67815093,122.9547275,Pet Connection Veterinary Clinic,"#6, 11th St, Lacson St, Bacolod, 6110 Negros Occidental",,
12,10.66494812,122.9430861,Santoceldes Animal Clinic,"40-2 Ferrer Building, Hernaez St, Bacolod, 6100 Negros Occidental",,
13,10.64222148,122.9331468,Puss & Pooch Veterinary Clinic,"Automatic Climate Control, Bacolod, 6100 Negros Occidental",,
14,10.67266587,122.9566902,Bacolod Animal Hospital And Veterinary Supply,"MXC4+PM4, Bacolod, 6100 Negros Occidental",,
15,10.6110531,122.9249682,Happyfeet Veterinary Clinic,"Guadalupe Building, Araneta Ave, Bacolod, 6100 Negros Occidental",,
16,10.66518719,122.9481639,Animal World Veterinary Clinic,"51-A Lacson St., Corner San Sebastian Street, Bacolod, 6100 Negros Occidental",,
17,10.70581545,122.9621572,Bacolod Dog And Cat Clinic,"PX36+XPQ, Carlos Hilado Hwy, Bacolod, Negros Occidental",,
18,10.65318134,122.9593939,Bacolod Dog And Cat Clinic,"#2 P Hernaez St Ext, Bacolod, 6100 Negros Occidental",,
19,10.66193158,122.9949303,Vet Nexdoor Veterinary Services,"MX6V+CWC, Burgos Ave, Bacolod, 6100 Negros Occidental",,
20,10.6639339,122.9690056,Juan Veterinarian- Bacolod,"Burgos Extension, Bacolod, 6100 Negros Occidental",,
21,10.7446717,122.9693317,Royal K9 Animal Clinic ,"PXV9+GM3, Paseo Mabini, Brgy. Zone II, Talisay City, 6115 Negros Occidental",,
22,10.60438046,122.9199381,Animal Clinic ,"JW39+CXG, Villarosa St, Bacolod, Negros Occidental",,
23,10.671611,122.9638797,Sanfegi Veterinary Clinic,"GRN Glass Bldg, BS Aquino Dr, Brgy Villamonte, Bacolod, 6100 Negros Occidental",,
24,10.66321898,122.9474205,B.Delorino Veterinary Clinic & Supply,"94A Lacson St, Bacolod, 6100 Negros Occidental",,
25,10.6631768,122.9474205,Lori Pet Care Products,"96 Lacson St, Bacolod, 6100 Negros Occidental",,
26,10.6568506,122.9564327,Dr Eliezer Dela Cruz,"40-2 P Hernaez St Ext, Bacolod, 6100 Negros Occidental",,
27,10.66695292,122.9636595,Most Valuable Pet (Mvp) Vet Clinic,"MX87+FC6, Bacolod, 6100 Negros Occidental",,
28,10.63172944,122.9768854,Pet Village,"JXJG+8MC, P Hernaez Street, Extension, Bacolod, 6100 Negros Occidental",,
29,10.80160935,122.9788365,Primavet- Animal Clinic,"DOOR #1, MONTINOLA BLG. (near STL Silay, Bonifacio St, Silay City, 6116 Negros Occidental",,
30,10.61607532,122.9223194,Animal Barracks Clinic,"JW3C+93G, Bacolod, Negros Occidental",,
31,10.69535786,122.95836,Novartis Animal Health,"MXF5+4Q2, Yakal St, Bacolod, 6100 Negros Occidental",,
32,10.61270084,122.9223194,Monreal Veterinary Trading,"HWW9+9QH, Peñafrancia St, Bacolod, Negros Occidental",,
33,10.68288238,122.9896107,Barking Lot Animal Clinic,"Bacolod, 6100 Negros Occidental",,
34,10.69502754,122.9518452,Provincial Veterinary Office,"MXH2+7W3, Lungsod ng Bacolod, 6100 Negros Occidental",,
,,,,,,
